{
  "accessors": [
    {
      "bufferView": 2,
      "componentType": 5126,
      "count": 262,
      "max": [
        0.12199161946773529,
        1.1819684505462646,
        0.12199163436889648
      ],
      "min": [
        -0.12199164927005768,
        -1.1819684505462646,
        -0.12199167907238007
      ],
      "type": "VEC3"
    },
    {
      "bufferView": 2,
      "byteOffset": 3144,
      "componentType": 5126,
      "count": 262,
      "max": [
        1,
        1,
        1
      ],
      "min": [
        -1,
        -1,
        -1
      ],
      "type": "VEC3"
    },
    {
      "bufferView": 3,
      "componentType": 5126,
      "count": 262,
      "max": [
        1,
        0.9997478723526001,
        1,
        1
      ],
      "min": [
        -0.80901718139648438,
        -0.99974781274795532,
        -1,
        1
      ],
      "type": "VEC4"
    },
    {
      "bufferView": 1,
      "componentType": 5126,
      "count": 262,
      "max": [
        0.39810848236083984,
        0.42192435264587402
      ],
      "min": [
        0.011119060218334198,
        0.0090125007554888725
      ],
      "type": "VEC2"
    },
    {
      "bufferView": 0,
      "componentType": 5125,
      "count": 720,
      "max": [
        261
      ],
      "min": [
        0
      ],
      "type": "SCALAR"
    },
    {
      "bufferView": 2,
      "byteOffset": 6288,
      "componentType": 5126,
      "count": 84,
      "max": [
        0.036531474441289902,
        0.036531493067741394,
        0.049921002238988876
      ],
      "min": [
        -0.036531481891870499,
        -0.0365314781665802,
        -0.049921002238988876
      ],
      "type": "VEC3"
    },
    {
      "bufferView": 2,
      "byteOffset": 7296,
      "componentType": 5126,
      "count": 84,
      "max": [
        1,
        1,
        1
      ],
      "min": [
        -1,
        -1,
        -1
      ],
      "type": "VEC3"
    },
    {
      "bufferView": 3,
      "byteOffset": 4192,
      "componentType": 5126,
      "count": 84,
      "max": [
        1,
        1,
        2.822886244757683e-07,
        1
      ],
      "min": [
        -1,
        -1,
        -2.8228859605405887e-07,
        1
      ],
      "type": "VEC4"
    },
    {
      "bufferView": 1,
      "byteOffset": 2096,
      "componentType": 5126,
      "count": 84,
      "max": [
        0.65625,
        1
      ],
      "min": [
        0.34374997019767761,
        -7.4505805969238281e-08
      ],
      "type": "VEC2"
    },
    {
      "bufferView": 0,
      "byteOffset": 2880,
      "componentType": 5125,
      "count": 240,
      "max": [
        83
      ],
      "min": [
        0
      ],
      "type": "SCALAR"
    },
    {
      "bufferView": 2,
      "byteOffset": 8304,
      "componentType": 5126,
      "count": 42,
      "max": [
        0.036531474441289902,
        0.036531493067741394,
        0.049921002238988876
      ],
      "min": [
        -0.036531481891870499,
        -0.0365314781665802,
        -0.049921002238988876
      ],
      "type": "VEC3"
    },
    {
      "bufferView": 2,
      "byteOffset": 8808,
      "componentType": 5126,
      "count": 42,
      "max": [
        1,
        1,
        0
      ],
      "min": [
        -1,
        -1,
        0
      ],
      "type": "VEC3"
    },
    {
      "bufferView": 3,
      "byteOffset": 5536,
      "componentType": 5126,
      "count": 42,
      "max": [
        1,
        1,
        0,
        1
      ],
      "min": [
        -1,
        -1,
        0,
        1
      ],
      "type": "VEC4"
    },
    {
      "bufferView": 1,
      "byteOffset": 2768,
      "componentType": 5126,
      "count": 42,
      "max": [
        0.6249997615814209,
        0.68843984603881836
      ],
      "min": [
        0.375,
        0.3125
      ],
      "type": "VEC2"
    },
    {
      "bufferView": 0,
      "byteOffset": 3840,
      "componentType": 5125,
      "count": 120,
      "max": [
        41
      ],
      "min": [
        0
      ],
      "type": "SCALAR"
    },
    {
      "bufferView": 2,
      "byteOffset": 9312,
      "componentType": 5126,
      "count": 202,
      "max": [
        0.10562640428543091,
        0.38129103183746338,
        0.10562640428543091
      ],
      "min": [
        -0.10562644898891449,
        -0.53548067808151245,
        -0.10562646389007568
      ],
      "type": "VEC3"
    },
    {
      "bufferView": 2,
      "byteOffset": 11736,
      "componentType": 5126,
      "count": 202,
      "max": [
        1,
        1,
        1
      ],
      "min": [
        -1,
        -1,
        -1
      ],
      "type": "VEC3"
    },
    {
      "bufferView": 3,
      "byteOffset": 6208,
      "componentType": 5126,
      "count": 202,
      "max": [
        0.80901700258255005,
        0.97550517320632935,
        0.99999845027923584,
        1
      ],
      "min": [
        -0.99999839067459106,
        -0.99999839067459106,
        -0.99999839067459106,
        1
      ],
      "type": "VEC4"
    },
    {
      "bufferView": 1,
      "byteOffset": 3104,
      "componentType": 5126,
      "count": 202,
      "max": [
        0.64103591442108154,
        0.98881345987319946
      ],
      "min": [
        0.21630817651748657,
        0.5240633487701416
      ],
      "type": "VEC2"
    },
    {
      "bufferView": 0,
      "byteOffset": 4320,
      "componentType": 5125,
      "count": 600,
      "max": [
        201
      ],
      "min": [
        0
      ],
      "type": "SCALAR"
    },
    {
      "bufferView": 2,
      "byteOffset": 14160,
      "componentType": 5126,
      "count": 202,
      "max": [
        0.10562640428543091,
        0.38129103183746338,
        0.10562640428543091
      ],
      "min": [
        -0.10562644898891449,
        -0.53548067808151245,
        -0.10562646389007568
      ],
      "type": "VEC3"
    },
    {
      "bufferView": 2,
      "byteOffset": 16584,
      "componentType": 5126,
      "count": 202,
      "max": [
        1,
        1,
        1
      ],
      "min": [
        -1,
        -1,
        -1
      ],
      "type": "VEC3"
    },
    {
      "bufferView": 3,
      "byteOffset": 9440,
      "componentType": 5126,
      "count": 202,
      "max": [
        1,
        1,
        1,
        1
      ],
      "min": [
        -0.80901771783828735,
        -0.97552740573883057,
        -1,
        1
      ],
      "type": "VEC4"
    },
    {
      "bufferView": 1,
      "byteOffset": 4720,
      "componentType": 5126,
      "count": 202,
      "max": [
        0.43482297658920288,
        0.98837935924530029
      ],
      "min": [
        0.012845175340771675,
        0.52660465240478516
      ],
      "type": "VEC2"
    },
    {
      "bufferView": 0,
      "byteOffset": 6720,
      "componentType": 5125,
      "count": 600,
      "max": [
        201
      ],
      "min": [
        0
      ],
      "type": "SCALAR"
    },
    {
      "bufferView": 2,
      "byteOffset": 19008,
      "componentType": 5126,
      "count": 84,
      "max": [
        0.067259855568408966,
        0.071388773620128632,
        0.071388766169548035
      ],
      "min": [
        -0.067259855568408966,
        -0.071388758718967438,
        -0.071388795971870422
      ],
      "type": "VEC3"
    },
    {
      "bufferView": 2,
      "byteOffset": 20016,
      "componentType": 5126,
      "count": 84,
      "max": [
        1,
        1,
        1
      ],
      "min": [
        -1,
        -1,
        -1
      ],
      "type": "VEC3"
    },
    {
      "bufferView": 3,
      "byteOffset": 12672,
      "componentType": 5126,
      "count": 84,
      "max": [
        1.4780357560084667e-07,
        1,
        1,
        1
      ],
      "min": [
        -2.9559706149484555e-07,
        -1,
        -1,
        1
      ],
      "type": "VEC4"
    },
    {
      "bufferView": 1,
      "byteOffset": 6336,
      "componentType": 5126,
      "count": 84,
      "max": [
        0.22431446611881256,
        0.51260548830032349
      ],
      "min": [
        0.17080549895763397,
        0.34137687087059021
      ],
      "type": "VEC2"
    },
    {
      "bufferView": 0,
      "byteOffset": 9120,
      "componentType": 5125,
      "count": 240,
      "max": [
        83
      ],
      "min": [
        0
      ],
      "type": "SCALAR"
    },
    {
      "bufferView": 2,
      "byteOffset": 21024,
      "componentType": 5126,
      "count": 84,
      "max": [
        0.067259855568408966,
        0.071388773620128632,
        0.071388766169548035
      ],
      "min": [
        -0.067259855568408966,
        -0.071388758718967438,
        -0.071388795971870422
      ],
      "type": "VEC3"
    },
    {
      "bufferView": 2,
      "byteOffset": 22032,
      "componentType": 5126,
      "count": 84,
      "max": [
        1,
        1,
        1
      ],
      "min": [
        -1,
        -1,
        -1
      ],
      "type": "VEC3"
    },
    {
      "bufferView": 3,
      "byteOffset": 14016,
      "componentType": 5126,
      "count": 84,
      "max": [
        1.4780357560084667e-07,
        1,
        1,
        1
      ],
      "min": [
        -2.9559706149484555e-07,
        -1,
        -1,
        1
      ],
      "type": "VEC4"
    },
    {
      "bufferView": 1,
      "byteOffset": 7008,
      "componentType": 5126,
      "count": 84,
      "max": [
        0.16227704286575317,
        0.51120644807815552
      ],
      "min": [
        0.10902583599090576,
        0.34080255031585693
      ],
      "type": "VEC2"
    },
    {
      "bufferView": 0,
      "byteOffset": 10080,
      "componentType": 5125,
      "count": 240,
      "max": [
        83
      ],
      "min": [
        0
      ],
      "type": "SCALAR"
    },
    {
      "bufferView": 2,
      "byteOffset": 23040,
      "componentType": 5126,
      "count": 42,
      "max": [
        0.036531474441289902,
        0.036531493067741394,
        0.049921002238988876
      ],
      "min": [
        -0.036531481891870499,
        -0.0365314781665802,
        -0.049921002238988876
      ],
      "type": "VEC3"
    },
    {
      "bufferView": 2,
      "byteOffset": 23544,
      "componentType": 5126,
      "count": 42,
      "max": [
        1,
        1,
        0
      ],
      "min": [
        -1,
        -1,
        0
      ],
      "type": "VEC3"
    },
    {
      "bufferView": 3,
      "byteOffset": 15360,
      "componentType": 5126,
      "count": 42,
      "max": [
        1,
        1,
        8.8215861055693437e-32,
        1
      ],
      "min": [
        -1,
        -1,
        -2.8586488672226268e-43,
        1
      ],
      "type": "VEC4"
    },
    {
      "bufferView": 1,
      "byteOffset": 7680,
      "componentType": 5126,
      "count": 42,
      "max": [
        0.24602043628692627,
        0.67461216449737549
      ],
      "min": [
        0.014411449432373047,
        0.32632768154144287
      ],
      "type": "VEC2"
    },
    {
      "bufferView": 0,
      "byteOffset": 11040,
      "componentType": 5125,
      "count": 120,
      "max": [
        41
      ],
      "min": [
        0
      ],
      "type": "SCALAR"
    },
    {
      "bufferView": 2,
      "byteOffset": 24048,
      "componentType": 5126,
      "count": 42,
      "max": [
        0.035347405821084976,
        0.17923784255981445,
        0.035347409546375275
      ],
      "min": [
        -0.035347413271665573,
        -0.17923784255981445,
        -0.035347424447536469
      ],
      "type": "VEC3"
    },
    {
      "bufferView": 2,
      "byteOffset": 24552,
      "componentType": 5126,
      "count": 42,
      "max": [
        1,
        0,
        1
      ],
      "min": [
        -1,
        0,
        -1
      ],
      "type": "VEC3"
    },
    {
      "bufferView": 3,
      "byteOffset": 16032,
      "componentType": 5126,
      "count": 42,
      "max": [
        1,
        0,
        1,
        1
      ],
      "min": [
        -1,
        0,
        -1,
        1
      ],
      "type": "VEC4"
    },
    {
      "bufferView": 1,
      "byteOffset": 8016,
      "componentType": 5126,
      "count": 42,
      "max": [
        0.59027165174484253,
        0.98278474807739258
      ],
      "min": [
        0.4143337607383728,
        0.7182161808013916
      ],
      "type": "VEC2"
    },
    {
      "bufferView": 0,
      "byteOffset": 11520,
      "componentType": 5125,
      "count": 120,
      "max": [
        41
      ],
      "min": [
        0
      ],
      "type": "SCALAR"
    },
    {
      "bufferView": 2,
      "byteOffset": 25056,
      "componentType": 5126,
      "count": 42,
      "max": [
        0.036531474441289902,
        0.036531493067741394,
        0.049921002238988876
      ],
      "min": [
        -0.036531481891870499,
        -0.0365314781665802,
        -0.049921002238988876
      ],
      "type": "VEC3"
    },
    {
      "bufferView": 2,
      "byteOffset": 25560,
      "componentType": 5126,
      "count": 42,
      "max": [
        1,
        1,
        0
      ],
      "min": [
        -1,
        -1,
        0
      ],
      "type": "VEC3"
    },
    {
      "bufferView": 3,
      "byteOffset": 16704,
      "componentType": 5126,
      "count": 42,
      "max": [
        1,
        1,
        0,
        1
      ],
      "min": [
        -1,
        -1,
        0,
        1
      ],
      "type": "VEC4"
    },
    {
      "bufferView": 1,
      "byteOffset": 8352,
      "componentType": 5126,
      "count": 42,
      "max": [
        0.95874786376953125,
        0.31440195441246033
      ],
      "min": [
        0.75553536415100098,
        0.0088190045207738876
      ],
      "type": "VEC2"
    },
    {
      "bufferView": 0,
      "byteOffset": 12000,
      "componentType": 5125,
      "count": 120,
      "max": [
        41
      ],
      "min": [
        0
      ],
      "type": "SCALAR"
    },
    {
      "bufferView": 2,
      "byteOffset": 26064,
      "componentType": 5126,
      "count": 42,
      "max": [
        0.035347405821084976,
        0.17923784255981445,
        0.035347409546375275
      ],
      "min": [
        -0.035347413271665573,
        -0.17923784255981445,
        -0.035347424447536469
      ],
      "type": "VEC3"
    },
    {
      "bufferView": 2,
      "byteOffset": 26568,
      "componentType": 5126,
      "count": 42,
      "max": [
        1,
        0,
        1
      ],
      "min": [
        -1,
        0,
        -1
      ],
      "type": "VEC3"
    },
    {
      "bufferView": 3,
      "byteOffset": 17376,
      "componentType": 5126,
      "count": 42,
      "max": [
        1,
        0,
        1,
        1
      ],
      "min": [
        -1,
        0,
        -1,
        1
      ],
      "type": "VEC4"
    },
    {
      "bufferView": 1,
      "byteOffset": 8688,
      "componentType": 5126,
      "count": 42,
      "max": [
        0.1975603848695755,
        0.98996639251708984
      ],
      "min": [
        0.013494621962308884,
        0.71317553520202637
      ],
      "type": "VEC2"
    },
    {
      "bufferView": 0,
      "byteOffset": 12480,
      "componentType": 5125,
      "count": 120,
      "max": [
        41
      ],
      "min": [
        0
      ],
      "type": "SCALAR"
    },
    {
      "bufferView": 2,
      "byteOffset": 27072,
      "componentType": 5126,
      "count": 42,
      "max": [
        0.035347405821084976,
        0.17923784255981445,
        0.035347409546375275
      ],
      "min": [
        -0.035347413271665573,
        -0.17923784255981445,
        -0.035347424447536469
      ],
      "type": "VEC3"
    },
    {
      "bufferView": 2,
      "byteOffset": 27576,
      "componentType": 5126,
      "count": 42,
      "max": [
        1,
        0,
        1
      ],
      "min": [
        -1,
        0,
        -1
      ],
      "type": "VEC3"
    },
    {
      "bufferView": 3,
      "byteOffset": 18048,
      "componentType": 5126,
      "count": 42,
      "max": [
        1,
        0,
        1,
        1
      ],
      "min": [
        -1,
        0,
        -1,
        1
      ],
      "type": "VEC4"
    },
    {
      "bufferView": 1,
      "byteOffset": 9024,
      "componentType": 5126,
      "count": 42,
      "max": [
        0.78841936588287354,
        0.99331265687942505
      ],
      "min": [
        0.60766756534576416,
        0.72150510549545288
      ],
      "type": "VEC2"
    },
    {
      "bufferView": 0,
      "byteOffset": 12960,
      "componentType": 5125,
      "count": 120,
      "max": [
        41
      ],
      "min": [
        0
      ],
      "type": "SCALAR"
    },
    {
      "bufferView": 2,
      "byteOffset": 28080,
      "componentType": 5126,
      "count": 42,
      "max": [
        0.036531474441289902,
        0.036531493067741394,
        0.049921002238988876
      ],
      "min": [
        -0.036531481891870499,
        -0.0365314781665802,
        -0.049921002238988876
      ],
      "type": "VEC3"
    },
    {
      "bufferView": 2,
      "byteOffset": 28584,
      "componentType": 5126,
      "count": 42,
      "max": [
        1,
        1,
        0
      ],
      "min": [
        -1,
        -1,
        0
      ],
      "type": "VEC3"
    },
    {
      "bufferView": 3,
      "byteOffset": 18720,
      "componentType": 5126,
      "count": 42,
      "max": [
        1,
        1,
        0,
        1
      ],
      "min": [
        -1,
        -1,
        0,
        1
      ],
      "type": "VEC4"
    },
    {
      "bufferView": 1,
      "byteOffset": 9360,
      "componentType": 5126,
      "count": 42,
      "max": [
        0.65114104747772217,
        0.31304973363876343
      ],
      "min": [
        0.45018336176872253,
        0.010857462882995605
      ],
      "type": "VEC2"
    },
    {
      "bufferView": 0,
      "byteOffset": 13440,
      "componentType": 5125,
      "count": 120,
      "max": [
        41
      ],
      "min": [
        0
      ],
      "type": "SCALAR"
    },
    {
      "bufferView": 2,
      "byteOffset": 29088,
      "componentType": 5126,
      "count": 42,
      "max": [
        0.036531474441289902,
        0.036531493067741394,
        0.049921002238988876
      ],
      "min": [
        -0.036531481891870499,
        -0.0365314781665802,
        -0.049921002238988876
      ],
      "type": "VEC3"
    },
    {
      "bufferView": 2,
      "byteOffset": 29592,
      "componentType": 5126,
      "count": 42,
      "max": [
        1,
        1,
        0
      ],
      "min": [
        -1,
        -1,
        0
      ],
      "type": "VEC3"
    },
    {
      "bufferView": 3,
      "byteOffset": 19392,
      "componentType": 5126,
      "count": 42,
      "max": [
        1,
        1,
        0,
        1
      ],
      "min": [
        -1,
        -1,
        0,
        1
      ],
      "type": "VEC4"
    },
    {
      "bufferView": 1,
      "byteOffset": 9696,
      "componentType": 5126,
      "count": 42,
      "max": [
        0.21561993658542633,
        0.31589844822883606
      ],
      "min": [
        0.013175398111343384,
        0.011470317840576172
      ],
      "type": "VEC2"
    },
    {
      "bufferView": 0,
      "byteOffset": 13920,
      "componentType": 5125,
      "count": 120,
      "max": [
        41
      ],
      "min": [
        0
      ],
      "type": "SCALAR"
    },
    {
      "bufferView": 2,
      "byteOffset": 30096,
      "componentType": 5126,
      "count": 42,
      "max": [
        0.036531474441289902,
        0.036531493067741394,
        0.049921002238988876
      ],
      "min": [
        -0.036531481891870499,
        -0.0365314781665802,
        -0.049921002238988876
      ],
      "type": "VEC3"
    },
    {
      "bufferView": 2,
      "byteOffset": 30600,
      "componentType": 5126,
      "count": 42,
      "max": [
        1,
        1,
        0
      ],
      "min": [
        -1,
        -1,
        0
      ],
      "type": "VEC3"
    },
    {
      "bufferView": 3,
      "byteOffset": 20064,
      "componentType": 5126,
      "count": 42,
      "max": [
        1,
        1,
        0,
        1
      ],
      "min": [
        -1,
        -1,
        0,
        1
      ],
      "type": "VEC4"
    },
    {
      "bufferView": 1,
      "byteOffset": 10032,
      "componentType": 5126,
      "count": 42,
      "max": [
        0.42714297771453857,
        0.30175623297691345
      ],
      "min": [
        0.2335527092218399,
        0.010642784647643566
      ],
      "type": "VEC2"
    },
    {
      "bufferView": 0,
      "byteOffset": 14400,
      "componentType": 5125,
      "count": 120,
      "max": [
        41
      ],
      "min": [
        0
      ],
      "type": "SCALAR"
    },
    {
      "bufferView": 2,
      "byteOffset": 31104,
      "componentType": 5126,
      "count": 150,
      "max": [
        0.006203770637512207,
        4.5321569442749023,
        -2.1919403076171875
      ],
      "min": [
        -0.88154876232147217,
        3.7895703315734863,
        -5.0719079971313477
      ],
      "type": "VEC3"
    },
    {
      "bufferView": 2,
      "byteOffset": 32904,
      "componentType": 5126,
      "count": 150,
      "max": [
        1,
        0.99982905387878418,
        0.90324151515960693
      ],
      "min": [
        -1,
        -0.90324193239212036,
        -0.99983131885528564
      ],
      "type": "VEC3"
    },
    {
      "bufferView": 3,
      "byteOffset": 20736,
      "componentType": 5126,
      "count": 150,
      "max": [
        1,
        0.586597740650177,
        0.94225698709487915,
        1
      ],
      "min": [
        -1,
        -0.90324151515960693,
        -1,
        1
      ],
      "type": "VEC4"
    },
    {
      "bufferView": 1,
      "byteOffset": 10368,
      "componentType": 5126,
      "count": 150,
      "max": [
        0.97777527570724487,
        0.98555481433868408
      ],
      "min": [
        0.018209576606750488,
        0.022749215364456177
      ],
      "type": "VEC2"
    },
    {
      "bufferView": 0,
      "byteOffset": 14880,
      "componentType": 5125,
      "count": 444,
      "max": [
        149
      ],
      "min": [
        0
      ],
      "type": "SCALAR"
    },
    {
      "bufferView": 2,
      "byteOffset": 34704,
      "componentType": 5126,
      "count": 86,
      "max": [
        0.45783734321594238,
        2.1529333591461182,
        -4.0918745994567871
      ],
      "min": [
        -0.62668514251708984,
        1.2499654293060303,
        -5.0067901611328125
      ],
      "type": "VEC3"
    },
    {
      "bufferView": 2,
      "byteOffset": 35736,
      "componentType": 5126,
      "count": 86,
      "max": [
        0.99912941455841064,
        0.99963146448135376,
        0.99999910593032837
      ],
      "min": [
        -0.99066621065139771,
        -0.99988675117492676,
        -0.99999940395355225
      ],
      "type": "VEC3"
    },
    {
      "bufferView": 3,
      "byteOffset": 23136,
      "componentType": 5126,
      "count": 86,
      "max": [
        0.13513617217540741,
        0.99999916553497314,
        0.99988681077957153,
        1
      ],
      "min": [
        -2.1481011572177522e-05,
        -0.99999946355819702,
        -0.99963152408599854,
        1
      ],
      "type": "VEC4"
    },
    {
      "bufferView": 1,
      "byteOffset": 11568,
      "componentType": 5126,
      "count": 86,
      "max": [
        0.94237756729125977,
        0.99800801277160645
      ],
      "min": [
        0.0018809932516887784,
        0.0019920319318771362
      ],
      "type": "VEC2"
    },
    {
      "bufferView": 0,
      "byteOffset": 16656,
      "componentType": 5125,
      "count": 186,
      "max": [
        85
      ],
      "min": [
        0
      ],
      "type": "SCALAR"
    },
    {
      "bufferView": 2,
      "byteOffset": 36768,
      "componentType": 5126,
      "count": 42,
      "max": [
        0.036531474441289902,
        0.036531493067741394,
        0.049921002238988876
      ],
      "min": [
        -0.036531481891870499,
        -0.0365314781665802,
        -0.049921002238988876
      ],
      "type": "VEC3"
    },
    {
      "bufferView": 2,
      "byteOffset": 37272,
      "componentType": 5126,
      "count": 42,
      "max": [
        1,
        1,
        0
      ],
      "min": [
        -1,
        -1,
        0
      ],
      "type": "VEC3"
    },
    {
      "bufferView": 3,
      "byteOffset": 24512,
      "componentType": 5126,
      "count": 42,
      "max": [
        1,
        1,
        0,
        1
      ],
      "min": [
        -1,
        -1,
        0,
        1
      ],
      "type": "VEC4"
    },
    {
      "bufferView": 1,
      "byteOffset": 12256,
      "componentType": 5126,
      "count": 42,
      "max": [
        0.97910493612289429,
        0.9866301417350769
      ],
      "min": [
        0.80303472280502319,
        0.72186261415481567
      ],
      "type": "VEC2"
    },
    {
      "bufferView": 0,
      "byteOffset": 17400,
      "componentType": 5125,
      "count": 120,
      "max": [
        41
      ],
      "min": [
        0
      ],
      "type": "SCALAR"
    },
    {
      "bufferView": 2,
      "byteOffset": 37776,
      "componentType": 5126,
      "count": 42,
      "max": [
        0.035347405821084976,
        0.17923784255981445,
        0.035347409546375275
      ],
      "min": [
        -0.035347413271665573,
        -0.17923784255981445,
        -0.035347424447536469
      ],
      "type": "VEC3"
    },
    {
      "bufferView": 2,
      "byteOffset": 38280,
      "componentType": 5126,
      "count": 42,
      "max": [
        1,
        0,
        1
      ],
      "min": [
        -1,
        0,
        -1
      ],
      "type": "VEC3"
    },
    {
      "bufferView": 3,
      "byteOffset": 25184,
      "componentType": 5126,
      "count": 42,
      "max": [
        1,
        0,
        1,
        1
      ],
      "min": [
        -1,
        0,
        -1,
        1
      ],
      "type": "VEC4"
    },
    {
      "bufferView": 1,
      "byteOffset": 12592,
      "componentType": 5126,
      "count": 42,
      "max": [
        0.39690309762954712,
        0.98847556114196777
      ],
      "min": [
        0.21482016146183014,
        0.71466636657714844
      ],
      "type": "VEC2"
    },
    {
      "bufferView": 0,
      "byteOffset": 17880,
      "componentType": 5125,
      "count": 120,
      "max": [
        41
      ],
      "min": [
        0
      ],
      "type": "SCALAR"
    },
    {
      "bufferView": 2,
      "byteOffset": 38784,
      "componentType": 5126,
      "count": 42,
      "max": [
        0.036531474441289902,
        0.036531493067741394,
        0.049921002238988876
      ],
      "min": [
        -0.036531481891870499,
        -0.0365314781665802,
        -0.049921002238988876
      ],
      "type": "VEC3"
    },
    {
      "bufferView": 2,
      "byteOffset": 39288,
      "componentType": 5126,
      "count": 42,
      "max": [
        1,
        1,
        0
      ],
      "min": [
        -1,
        -1,
        0
      ],
      "type": "VEC3"
    },
    {
      "bufferView": 3,
      "byteOffset": 25856,
      "componentType": 5126,
      "count": 42,
      "max": [
        1,
        1,
        0,
        1
      ],
      "min": [
        -1,
        -1,
        0,
        1
      ],
      "type": "VEC4"
    },
    {
      "bufferView": 1,
      "byteOffset": 12928,
      "componentType": 5126,
      "count": 42,
      "max": [
        0.76867645978927612,
        0.68169158697128296
      ],
      "min": [
        0.53990286588668823,
        0.33767089247703552
      ],
      "type": "VEC2"
    },
    {
      "bufferView": 0,
      "byteOffset": 18360,
      "componentType": 5125,
      "count": 120,
      "max": [
        41
      ],
      "min": [
        0
      ],
      "type": "SCALAR"
    },
    {
      "bufferView": 2,
      "byteOffset": 39792,
      "componentType": 5126,
      "count": 42,
      "max": [
        0.036531474441289902,
        0.036531493067741394,
        0.049921002238988876
      ],
      "min": [
        -0.036531481891870499,
        -0.0365314781665802,
        -0.049921002238988876
      ],
      "type": "VEC3"
    },
    {
      "bufferView": 2,
      "byteOffset": 40296,
      "componentType": 5126,
      "count": 42,
      "max": [
        1,
        1,
        0
      ],
      "min": [
        -1,
        -1,
        0
      ],
      "type": "VEC3"
    },
    {
      "bufferView": 3,
      "byteOffset": 26528,
      "componentType": 5126,
      "count": 42,
      "max": [
        1,
        1,
        0,
        1
      ],
      "min": [
        -1,
        -1,
        0,
        1
      ],
      "type": "VEC4"
    },
    {
      "bufferView": 1,
      "byteOffset": 13264,
      "componentType": 5126,
      "count": 42,
      "max": [
        0.50825029611587524,
        0.67922139167785645
      ],
      "min": [
        0.27051112055778503,
        0.32171845436096191
      ],
      "type": "VEC2"
    },
    {
      "bufferView": 0,
      "byteOffset": 18840,
      "componentType": 5125,
      "count": 120,
      "max": [
        41
      ],
      "min": [
        0
      ],
      "type": "SCALAR"
    },
    {
      "bufferView": 2,
      "byteOffset": 40800,
      "componentType": 5126,
      "count": 202,
      "max": [
        0.10562634468078613,
        0.29829674959182739,
        0.10562610626220703
      ],
      "min": [
        -0.10562646389007568,
        -0.53548067808151245,
        -0.10562658309936523
      ],
      "type": "VEC3"
    },
    {
      "bufferView": 2,
      "byteOffset": 43224,
      "componentType": 5126,
      "count": 202,
      "max": [
        1,
        1,
        1
      ],
      "min": [
        -1,
        -1,
        -1
      ],
      "type": "VEC3"
    },
    {
      "bufferView": 3,
      "byteOffset": 27200,
      "componentType": 5126,
      "count": 202,
      "max": [
        1,
        1,
        1,
        1
      ],
      "min": [
        -0.80902403593063354,
        -0.97552776336669922,
        -1,
        1
      ],
      "type": "VEC4"
    },
    {
      "bufferView": 1,
      "byteOffset": 13600,
      "componentType": 5126,
      "count": 202,
      "max": [
        0.99311286211013794,
        0.62065386772155762
      ],
      "min": [
        0.61892837285995483,
        0.23150815069675446
      ],
      "type": "VEC2"
    },
    {
      "bufferView": 0,
      "byteOffset": 19320,
      "componentType": 5125,
      "count": 600,
      "max": [
        201
      ],
      "min": [
        0
      ],
      "type": "SCALAR"
    },
    {
      "bufferView": 2,
      "byteOffset": 45648,
      "componentType": 5126,
      "count": 202,
      "max": [
        0.10562634468078613,
        0.29829674959182739,
        0.10562610626220703
      ],
      "min": [
        -0.10562646389007568,
        -0.53548067808151245,
        -0.10562658309936523
      ],
      "type": "VEC3"
    },
    {
      "bufferView": 2,
      "byteOffset": 48072,
      "componentType": 5126,
      "count": 202,
      "max": [
        1,
        1,
        1
      ],
      "min": [
        -1,
        -1,
        -1
      ],
      "type": "VEC3"
    },
    {
      "bufferView": 3,
      "byteOffset": 30432,
      "componentType": 5126,
      "count": 202,
      "max": [
        1,
        1,
        1,
        1
      ],
      "min": [
        -0.80902409553527832,
        -0.97552782297134399,
        -1,
        1
      ],
      "type": "VEC4"
    },
    {
      "bufferView": 1,
      "byteOffset": 15216,
      "componentType": 5126,
      "count": 202,
      "max": [
        0.87969547510147095,
        0.45571780204772949
      ],
      "min": [
        0.42128017544746399,
        0.015428340062499046
      ],
      "type": "VEC2"
    },
    {
      "bufferView": 0,
      "byteOffset": 21720,
      "componentType": 5125,
      "count": 600,
      "max": [
        201
      ],
      "min": [
        0
      ],
      "type": "SCALAR"
    },
    {
      "bufferView": 2,
      "byteOffset": 50496,
      "componentType": 5126,
      "count": 24,
      "max": [
        0.011931679211556911,
        0.4280489981174469,
        0.32662972807884216
      ],
      "min": [
        -0.011931679211556911,
        -0.4280489981174469,
        -0.32662972807884216
      ],
      "type": "VEC3"
    },
    {
      "bufferView": 2,
      "byteOffset": 50784,
      "componentType": 5126,
      "count": 24,
      "max": [
        1,
        1,
        1
      ],
      "min": [
        -1,
        -1,
        -1
      ],
      "type": "VEC3"
    },
    {
      "bufferView": 3,
      "byteOffset": 33664,
      "componentType": 5126,
      "count": 24,
      "max": [
        1,
        0,
        1,
        1
      ],
      "min": [
        0,
        0,
        -1,
        1
      ],
      "type": "VEC4"
    },
    {
      "bufferView": 1,
      "byteOffset": 16832,
      "componentType": 5126,
      "count": 24,
      "max": [
        0.99294185638427734,
        0.17899435758590698
      ],
      "min": [
        0.70789813995361328,
        0.010838872753083706
      ],
      "type": "VEC2"
    },
    {
      "bufferView": 0,
      "byteOffset": 24120,
      "componentType": 5125,
      "count": 36,
      "max": [
        23
      ],
      "min": [
        0
      ],
      "type": "SCALAR"
    },
    {
      "bufferView": 2,
      "byteOffset": 51072,
      "componentType": 5126,
      "count": 24,
      "max": [
        0.017298366874456406,
        1.1589905023574829,
        0.85194456577301025
      ],
      "min": [
        -0.017298366874456406,
        -1.1589905023574829,
        -0.85194456577301025
      ],
      "type": "VEC3"
    },
    {
      "bufferView": 2,
      "byteOffset": 51360,
      "componentType": 5126,
      "count": 24,
      "max": [
        1,
        1,
        1
      ],
      "min": [
        -1,
        -1,
        -1
      ],
      "type": "VEC3"
    },
    {
      "bufferView": 3,
      "byteOffset": 34048,
      "componentType": 5126,
      "count": 24,
      "max": [
        1,
        0,
        1,
        1
      ],
      "min": [
        0,
        0,
        -1,
        1
      ],
      "type": "VEC4"
    },
    {
      "bufferView": 1,
      "byteOffset": 17024,
      "componentType": 5126,
      "count": 24,
      "max": [
        0.98958307504653931,
        0.99091804027557373
      ],
      "min": [
        0.51196426153182983,
        0.53619813919067383
      ],
      "type": "VEC2"
    },
    {
      "bufferView": 0,
      "byteOffset": 24264,
      "componentType": 5125,
      "count": 36,
      "max": [
        23
      ],
      "min": [
        0
      ],
      "type": "SCALAR"
    },
    {
      "bufferView": 2,
      "byteOffset": 51648,
      "componentType": 5126,
      "count": 24,
      "max": [
        0.017298366874456406,
        1.1589905023574829,
        0.85194456577301025
      ],
      "min": [
        -0.017298366874456406,
        -1.1589905023574829,
        -0.85194456577301025
      ],
      "type": "VEC3"
    },
    {
      "bufferView": 2,
      "byteOffset": 51936,
      "componentType": 5126,
      "count": 24,
      "max": [
        1,
        1,
        1
      ],
      "min": [
        -1,
        -1,
        -1
      ],
      "type": "VEC3"
    },
    {
      "bufferView": 3,
      "byteOffset": 34432,
      "componentType": 5126,
      "count": 24,
      "max": [
        1,
        0,
        1,
        1
      ],
      "min": [
        0,
        0,
        -1,
        1
      ],
      "type": "VEC4"
    },
    {
      "bufferView": 1,
      "byteOffset": 17216,
      "componentType": 5126,
      "count": 24,
      "max": [
        0.50162649154663086,
        0.98815321922302246
      ],
      "min": [
        0.015268128365278244,
        0.53256857395172119
      ],
      "type": "VEC2"
    },
    {
      "bufferView": 0,
      "byteOffset": 24408,
      "componentType": 5125,
      "count": 36,
      "max": [
        23
      ],
      "min": [
        0
      ],
      "type": "SCALAR"
    },
    {
      "bufferView": 2,
      "byteOffset": 52224,
      "componentType": 5126,
      "count": 24,
      "max": [
        0.011931679211556911,
        0.4280489981174469,
        0.32662972807884216
      ],
      "min": [
        -0.011931679211556911,
        -0.4280489981174469,
        -0.32662972807884216
      ],
      "type": "VEC3"
    },
    {
      "bufferView": 2,
      "byteOffset": 52512,
      "componentType": 5126,
      "count": 24,
      "max": [
        1,
        1,
        1
      ],
      "min": [
        -1,
        -1,
        -1
      ],
      "type": "VEC3"
    },
    {
      "bufferView": 3,
      "byteOffset": 34816,
      "componentType": 5126,
      "count": 24,
      "max": [
        1,
        0,
        1,
        1
      ],
      "min": [
        0,
        0,
        -1,
        1
      ],
      "type": "VEC4"
    },
    {
      "bufferView": 1,
      "byteOffset": 17408,
      "componentType": 5126,
      "count": 24,
      "max": [
        0.69581896066665649,
        0.18056738376617432
      ],
      "min": [
        0.40504792332649231,
        0.0085326433181762695
      ],
      "type": "VEC2"
    },
    {
      "bufferView": 0,
      "byteOffset": 24552,
      "componentType": 5125,
      "count": 36,
      "max": [
        23
      ],
      "min": [
        0
      ],
      "type": "SCALAR"
    },
    {
      "bufferView": 2,
      "byteOffset": 52800,
      "componentType": 5126,
      "count": 12,
      "max": [
        -0.34567910432815552,
        0.4280489981174469,
        0.32662972807884216
      ],
      "min": [
        -0.36954247951507568,
        -0.4280489981174469,
        -0.32662972807884216
      ],
      "type": "VEC3"
    },
    {
      "bufferView": 2,
      "byteOffset": 52944,
      "componentType": 5126,
      "count": 12,
      "max": [
        1,
        1,
        0
      ],
      "min": [
        -1,
        0,
        0
      ],
      "type": "VEC3"
    },
    {
      "bufferView": 3,
      "byteOffset": 35200,
      "componentType": 5126,
      "count": 12,
      "max": [
        0.0025858711451292038,
        0.99999672174453735,
        0.0025858574081212282,
        1
      ],
      "min": [
        0,
        0,
        -0.99999666213989258,
        1
      ],
      "type": "VEC4"
    },
    {
      "bufferView": 1,
      "byteOffset": 17600,
      "componentType": 5126,
      "count": 12,
      "max": [
        0.98747920989990234,
        0.48702597618103027
      ],
      "min": [
        0.54881823062896729,
        0.21017202734947205
      ],
      "type": "VEC2"
    },
    {
      "bufferView": 0,
      "byteOffset": 24696,
      "componentType": 5125,
      "count": 18,
      "max": [
        11
      ],
      "min": [
        0
      ],
      "type": "SCALAR"
    },
    {
      "bufferView": 2,
      "byteOffset": 53088,
      "componentType": 5126,
      "count": 100,
      "max": [
        0.011634567752480507,
        0.59214186668395996,
        0.16874629259109497
      ],
      "min": [
        -0.041557058691978455,
        -0.57718139886856079,
        -0.1693357527256012
      ],
      "type": "VEC3"
    },
    {
      "bufferView": 2,
      "byteOffset": 54288,
      "componentType": 5126,
      "count": 100,
      "max": [
        1,
        0.98182135820388794,
        0.99998396635055542
      ],
      "min": [
        -1,
        -0.99994266033172607,
        -1
      ],
      "type": "VEC3"
    },
    {
      "bufferView": 3,
      "byteOffset": 35392,
      "componentType": 5126,
      "count": 100,
      "max": [
        1,
        0.66226780414581299,
        1,
        1
      ],
      "min": [
        -0.58858007192611694,
        -0.71715342998504639,
        -1,
        1
      ],
      "type": "VEC4"
    },
    {
      "bufferView": 1,
      "byteOffset": 17696,
      "componentType": 5126,
      "count": 100,
      "max": [
        0.39085721969604492,
        0.31377440690994263
      ],
      "min": [
        0.014943093061447144,
        0.013873696327209473
      ],
      "type": "VEC2"
    },
    {
      "bufferView": 0,
      "byteOffset": 24768,
      "componentType": 5125,
      "count": 324,
      "max": [
        99
      ],
      "min": [
        0
      ],
      "type": "SCALAR"
    },
    {
      "bufferView": 4,
      "componentType": 5126,
      "count": 1,
      "max": [
        0.041666667908430099
      ],
      "min": [
        0.041666667908430099
      ],
      "type": "SCALAR"
    },
    {
      "bufferView": 5,
      "componentType": 5126,
      "count": 1,
      "max": [
        -0.083596751093864441,
        2.1301970481872559,
        -4.9972271919250488
      ],
      "min": [
        -0.083596751093864441,
        2.1301970481872559,
        -4.9972271919250488
      ],
      "type": "VEC3"
    },
    {
      "bufferView": 4,
      "byteOffset": 4,
      "componentType": 5126,
      "count": 1,
      "max": [
        0.041666667908430099
      ],
      "min": [
        0.041666667908430099
      ],
      "type": "SCALAR"
    },
    {
      "bufferView": 5,
      "byteOffset": 12,
      "componentType": 5126,
      "count": 1,
      "max": [
        1,
        1.1920711994171143,
        0.13190945982933044
      ],
      "min": [
        1,
        1.1920711994171143,
        0.13190945982933044
      ],
      "type": "VEC3"
    },
    {
      "bufferView": 4,
      "byteOffset": 8,
      "componentType": 5126,
      "count": 1,
      "max": [
        0.041666667908430099
      ],
      "min": [
        0.041666667908430099
      ],
      "type": "SCALAR"
    },
    {
      "bufferView": 6,
      "componentType": 5126,
      "count": 1,
      "max": [
        0.18317179381847382,
        0,
        0,
        0.98308092355728149
      ],
      "min": [
        0.18317179381847382,
        0,
        0,
        0.98308092355728149
      ],
      "type": "VEC4"
    }
  ],
  "animations": [
    {
      "channels": [
        {
          "sampler": 0,
          "target": {
            "node": 21,
            "path": "translation"
          }
        },
        {
          "sampler": 1,
          "target": {
            "node": 21,
            "path": "scale"
          }
        },
        {
          "sampler": 2,
          "target": {
            "node": 21,
            "path": "rotation"
          }
        }
      ],
      "name": "Take 001",
      "samplers": [
        {
          "input": 145,
          "interpolation": "LINEAR",
          "output": 146
        },
        {
          "input": 147,
          "interpolation": "LINEAR",
          "output": 148
        },
        {
          "input": 149,
          "interpolation": "LINEAR",
          "output": 150
        }
      ]
    }
  ],
  "asset": {
    "extras": {
      "author": "evtushenko (https://sketchfab.com/evtushenko)",
      "license": "CC-BY-4.0 (http://creativecommons.org/licenses/by/4.0/)",
      "source": "https://sketchfab.com/3d-models/bus-stop-e2dd1c27621647a6a121dd924f62c0ca",
      "title": "Bus Stop"
    },
    "generator": "Sketchfab-7.4.0",
    "version": "2.0"
  },
  "bufferViews": [
    {
      "buffer": 0,
      "byteLength": 26064,
      "byteOffset": 0,
      "name": "floatBufferViews",
      "target": 34963
    },
    {
      "buffer": 0,
      "byteLength": 18496,
      "byteOffset": 26064,
      "byteStride": 8,
      "name": "floatBufferViews",
      "target": 34962
    },
    {
      "buffer": 0,
      "byteLength": 55488,
      "byteOffset": 44560,
      "byteStride": 12,
      "name": "floatBufferViews",
      "target": 34962
    },
    {
      "buffer": 0,
      "byteLength": 36992,
      "byteOffset": 100048,
      "byteStride": 16,
      "name": "floatBufferViews",
      "target": 34962
    },
    {
      "buffer": 0,
      "byteLength": 12,
      "byteOffset": 137040,
      "name": "floatBufferViews"
    },
    {
      "buffer": 0,
      "byteLength": 24,
      "byteOffset": 137052,
      "byteStride": 12,
      "name": "floatBufferViews"
    },
    {
      "buffer": 0,
      "byteLength": 16,
      "byteOffset": 137076,
      "byteStride": 16,
      "name": "floatBufferViews"
    }
  ],
  "buffers": [
    {
      "byteLength": 137092,
      "uri": "scene.bin"
    }
  ],
  "images": [
    {
      "uri": "textures/lambert10_baseColor.png"
    },
    {
      "uri": "textures/lambert13_baseColor.png"
    },
    {
      "uri": "textures/aiStandardSurface5_baseColor.jpeg"
    },
    {
      "uri": "textures/aiStandardSurface6_baseColor.png"
    },
    {
      "uri": "textures/aiStandardSurface7_baseColor.png"
    }
  ],
  "materials": [
    {
      "doubleSided": true,
      "emissiveFactor": [
        0,
        0,
        0
      ],
      "name": "lambert10",
      "pbrMetallicRoughness": {
        "baseColorFactor": [
          1,
          1,
          1,
          1
        ],
        "baseColorTexture": {
          "index": 0,
          "texCoord": 0
        },
        "metallicFactor": 0,
        "roughnessFactor": 0.59999999999999998
      }
    },
    {
      "doubleSided": true,
      "emissiveFactor": [
        0,
        0,
        0
      ],
      "name": "lambert1",
      "pbrMetallicRoughness": {
        "baseColorFactor": [
          0.5,
          0.5,
          0.5,
          1
        ],
        "metallicFactor": 0,
        "roughnessFactor": 0.59999999999999998
      }
    },
    {
      "doubleSided": true,
      "emissiveFactor": [
        0,
        0,
        0
      ],
      "name": "lambert13",
      "pbrMetallicRoughness": {
        "baseColorFactor": [
          1,
          1,
          1,
          1
        ],
        "baseColorTexture": {
          "index": 1,
          "texCoord": 0
        },
        "metallicFactor": 0,
        "roughnessFactor": 0.59999999999999998
      }
    },
    {
      "doubleSided": true,
      "name": "aiStandardSurface5",
      "pbrMetallicRoughness": {
        "baseColorFactor": [
          1,
          1,
          1,
          1
        ],
        "baseColorTexture": {
          "index": 2,
          "texCoord": 0
        },
        "metallicFactor": 0,
        "roughnessFactor": 0.59999999999999998
      }
    },
    {
      "doubleSided": true,
      "name": "aiStandardSurface6",
      "pbrMetallicRoughness": {
        "baseColorFactor": [
          1,
          1,
          1,
          1
        ],
        "baseColorTexture": {
          "index": 3,
          "texCoord": 0
        },
        "metallicFactor": 0,
        "roughnessFactor": 0.59999999999999998
      }
    },
    {
      "doubleSided": true,
      "name": "aiStandardSurface7",
      "pbrMetallicRoughness": {
        "baseColorFactor": [
          1,
          1,
          1,
          1
        ],
        "baseColorTexture": {
          "index": 4,
          "texCoord": 0
        },
        "metallicFactor": 0,
        "roughnessFactor": 0.59999999999999998
      }
    }
  ],
  "meshes": [
    {
      "name": "pCylinder1_lambert10_0",
      "primitives": [
        {
          "attributes": {
            "NORMAL": 1,
            "POSITION": 0,
            "TANGENT": 2,
            "TEXCOORD_0": 3
          },
          "indices": 4,
          "material": 0,
          "mode": 4
        }
      ]
    },
    {
      "name": "pCylinder22_lambert1_0",
      "primitives": [
        {
          "attributes": {
            "NORMAL": 6,
            "POSITION": 5,
            "TANGENT": 7,
            "TEXCOORD_0": 8
          },
          "indices": 9,
          "material": 1,
          "mode": 4
        }
      ]
    },
    {
      "name": "pCylinder21_lambert1_0",
      "primitives": [
        {
          "attributes": {
            "NORMAL": 11,
            "POSITION": 10,
            "TANGENT": 12,
            "TEXCOORD_0": 13
          },
          "indices": 14,
          "material": 1,
          "mode": 4
        }
      ]
    },
    {
      "name": "pCylinder14_lambert10_0",
      "primitives": [
        {
          "attributes": {
            "NORMAL": 16,
            "POSITION": 15,
            "TANGENT": 17,
            "TEXCOORD_0": 18
          },
          "indices": 19,
          "material": 0,
          "mode": 4
        }
      ]
    },
    {
      "name": "pCylinder4_lambert10_0",
      "primitives": [
        {
          "attributes": {
            "NORMAL": 21,
            "POSITION": 20,
            "TANGENT": 22,
            "TEXCOORD_0": 23
          },
          "indices": 24,
          "material": 0,
          "mode": 4
        }
      ]
    },
    {
      "name": "pCylinder3_lambert10_0",
      "primitives": [
        {
          "attributes": {
            "NORMAL": 26,
            "POSITION": 25,
            "TANGENT": 27,
            "TEXCOORD_0": 28
          },
          "indices": 29,
          "material": 0,
          "mode": 4
        }
      ]
    },
    {
      "name": "pCylinder2_lambert10_0",
      "primitives": [
        {
          "attributes": {
            "NORMAL": 31,
            "POSITION": 30,
            "TANGENT": 32,
            "TEXCOORD_0": 33
          },
          "indices": 34,
          "material": 0,
          "mode": 4
        }
      ]
    },
    {
      "name": "pCylinder6_lambert13_0",
      "primitives": [
        {
          "attributes": {
            "NORMAL": 36,
            "POSITION": 35,
            "TANGENT": 37,
            "TEXCOORD_0": 38
          },
          "indices": 39,
          "material": 2,
          "mode": 4
        }
      ]
    },
    {
      "name": "pCylinder20_lambert13_0",
      "primitives": [
        {
          "attributes": {
            "NORMAL": 41,
            "POSITION": 40,
            "TANGENT": 42,
            "TEXCOORD_0": 43
          },
          "indices": 44,
          "material": 2,
          "mode": 4
        }
      ]
    },
    {
      "name": "pCylinder13_lambert13_0",
      "primitives": [
        {
          "attributes": {
            "NORMAL": 46,
            "POSITION": 45,
            "TANGENT": 47,
            "TEXCOORD_0": 48
          },
          "indices": 49,
          "material": 2,
          "mode": 4
        }
      ]
    },
    {
      "name": "pCylinder28_lambert13_0",
      "primitives": [
        {
          "attributes": {
            "NORMAL": 51,
            "POSITION": 50,
            "TANGENT": 52,
            "TEXCOORD_0": 53
          },
          "indices": 54,
          "material": 2,
          "mode": 4
        }
      ]
    },
    {
      "name": "pCylinder26_lambert13_0",
      "primitives": [
        {
          "attributes": {
            "NORMAL": 56,
            "POSITION": 55,
            "TANGENT": 57,
            "TEXCOORD_0": 58
          },
          "indices": 59,
          "material": 2,
          "mode": 4
        }
      ]
    },
    {
      "name": "pCylinder9_lambert13_0",
      "primitives": [
        {
          "attributes": {
            "NORMAL": 61,
            "POSITION": 60,
            "TANGENT": 62,
            "TEXCOORD_0": 63
          },
          "indices": 64,
          "material": 2,
          "mode": 4
        }
      ]
    },
    {
      "name": "pCylinder11_lambert13_0",
      "primitives": [
        {
          "attributes": {
            "NORMAL": 66,
            "POSITION": 65,
            "TANGENT": 67,
            "TEXCOORD_0": 68
          },
          "indices": 69,
          "material": 2,
          "mode": 4
        }
      ]
    },
    {
      "name": "pCylinder12_lambert13_0",
      "primitives": [
        {
          "attributes": {
            "NORMAL": 71,
            "POSITION": 70,
            "TANGENT": 72,
            "TEXCOORD_0": 73
          },
          "indices": 74,
          "material": 2,
          "mode": 4
        }
      ]
    },
    {
      "name": "pCube6_aiStandardSurface5_0",
      "primitives": [
        {
          "attributes": {
            "NORMAL": 76,
            "POSITION": 75,
            "TANGENT": 77,
            "TEXCOORD_0": 78
          },
          "indices": 79,
          "material": 3,
          "mode": 4
        }
      ]
    },
    {
      "name": "pCube13_aiStandardSurface6_0",
      "primitives": [
        {
          "attributes": {
            "NORMAL": 81,
            "POSITION": 80,
            "TANGENT": 82,
            "TEXCOORD_0": 83
          },
          "indices": 84,
          "material": 4,
          "mode": 4
        }
      ]
    },
    {
      "name": "pCylinder15_lambert13_0",
      "primitives": [
        {
          "attributes": {
            "NORMAL": 86,
            "POSITION": 85,
            "TANGENT": 87,
            "TEXCOORD_0": 88
          },
          "indices": 89,
          "material": 2,
          "mode": 4
        }
      ]
    },
    {
      "name": "pCylinder27_lambert13_0",
      "primitives": [
        {
          "attributes": {
            "NORMAL": 91,
            "POSITION": 90,
            "TANGENT": 92,
            "TEXCOORD_0": 93
          },
          "indices": 94,
          "material": 2,
          "mode": 4
        }
      ]
    },
    {
      "name": "pCylinder8_lambert13_0",
      "primitives": [
        {
          "attributes": {
            "NORMAL": 96,
            "POSITION": 95,
            "TANGENT": 97,
            "TEXCOORD_0": 98
          },
          "indices": 99,
          "material": 2,
          "mode": 4
        }
      ]
    },
    {
      "name": "pCylinder7_lambert13_0",
      "primitives": [
        {
          "attributes": {
            "NORMAL": 101,
            "POSITION": 100,
            "TANGENT": 102,
            "TEXCOORD_0": 103
          },
          "indices": 104,
          "material": 2,
          "mode": 4
        }
      ]
    },
    {
      "name": "pCylinder25_lambert10_0",
      "primitives": [
        {
          "attributes": {
            "NORMAL": 106,
            "POSITION": 105,
            "TANGENT": 107,
            "TEXCOORD_0": 108
          },
          "indices": 109,
          "material": 0,
          "mode": 4
        }
      ]
    },
    {
      "name": "pCylinder5_lambert10_0",
      "primitives": [
        {
          "attributes": {
            "NORMAL": 111,
            "POSITION": 110,
            "TANGENT": 112,
            "TEXCOORD_0": 113
          },
          "indices": 114,
          "material": 0,
          "mode": 4
        }
      ]
    },
    {
      "name": "pCube15_aiStandardSurface7_0",
      "primitives": [
        {
          "attributes": {
            "NORMAL": 116,
            "POSITION": 115,
            "TANGENT": 117,
            "TEXCOORD_0": 118
          },
          "indices": 119,
          "material": 5,
          "mode": 4
        }
      ]
    },
    {
      "name": "pCube7_aiStandardSurface7_0",
      "primitives": [
        {
          "attributes": {
            "NORMAL": 121,
            "POSITION": 120,
            "TANGENT": 122,
            "TEXCOORD_0": 123
          },
          "indices": 124,
          "material": 5,
          "mode": 4
        }
      ]
    },
    {
      "name": "pCube8_aiStandardSurface7_0",
      "primitives": [
        {
          "attributes": {
            "NORMAL": 126,
            "POSITION": 125,
            "TANGENT": 127,
            "TEXCOORD_0": 128
          },
          "indices": 129,
          "material": 5,
          "mode": 4
        }
      ]
    },
    {
      "name": "pCube14_aiStandardSurface7_0",
      "primitives": [
        {
          "attributes": {
            "NORMAL": 131,
            "POSITION": 130,
            "TANGENT": 132,
            "TEXCOORD_0": 133
          },
          "indices": 134,
          "material": 5,
          "mode": 4
        }
      ]
    },
    {
      "name": "pCube16_aiStandardSurface7_0",
      "primitives": [
        {
          "attributes": {
            "NORMAL": 136,
            "POSITION": 135,
            "TANGENT": 137,
            "TEXCOORD_0": 138
          },
          "indices": 139,
          "material": 5,
          "mode": 4
        }
      ]
    },
    {
      "name": "pCube2_aiStandardSurface7_0",
      "primitives": [
        {
          "attributes": {
            "NORMAL": 141,
            "POSITION": 140,
            "TANGENT": 142,
            "TEXCOORD_0": 143
          },
          "indices": 144,
          "material": 5,
          "mode": 4
        }
      ]
    }
  ],
  "nodes": [
    {
      "children": [
        1
      ],
      "name": "RootNode (gltf orientation matrix)",
      "rotation": [
        -0.70710678118654746,
        -0,
        -0,
        0.70710678118654757
      ]
    },
    {
      "children": [
        2
      ],
      "name": "RootNode (model correction matrix)"
    },
    {
      "children": [
        3
      ],
      "matrix": [
        1,
        0,
        0,
        0,
        0,
        0,
        1,
        0,
        0,
        -1,
        0,
        0,
        0,
        0,
        0,
        1
      ],
      "name": "040053420dce4e1a81302472719b5ef0.fbx"
    },
    {
      "children": [
        4
      ],
      "name": ""
    },
    {
      "children": [
        5,
        7,
        9,
        11,
        13,
        15,
        17,
        19,
        21,
        23
      ],
      "name": "RootNode"
    },
    {
      "children": [
        6
      ],
      "name": "pCylinder10",
      "scale": [
        1.0084261894226074,
        1,
        1.7285537719726562
      ],
      "translation": [
        -0.43757855892181396,
        1.7713614702224731,
        -5.0745372772216797
      ]
    },
    {
      "name": "transform1"
    },
    {
      "children": [
        8
      ],
      "name": "pCube3",
      "rotation": [
        0.21995255351066589,
        0,
        0,
        0.97551059722900391
      ],
      "scale": [
        0.89039576053619385,
        1,
        0.19358451664447784
      ],
      "translation": [
        -0.437671959400177,
        3.8611156940460205,
        -2.2324566841125488
      ]
    },
    {
      "name": "transform2"
    },
    {
      "children": [
        10
      ],
      "name": "pCube4"
    },
    {
      "name": "transform4"
    },
    {
      "children": [
        12
      ],
      "name": "pCube5",
      "translation": [
        0,
        -0.077115066349506378,
        0
      ]
    },
    {
      "name": "transform3"
    },
    {
      "children": [
        14
      ],
      "name": "pCylinder23",
      "scale": [
        6.5051999092102051,
        1.2566697597503662,
        1.2566697597503662
      ],
      "translation": [
        -0.083164513111114502,
        1.9356282949447632,
        -4.3526616096496582
      ]
    },
    {
      "name": "transform5"
    },
    {
      "children": [
        16
      ],
      "name": "pCylinder24",
      "scale": [
        6.5051999092102051,
        1.2808723449707031,
        1.2942147254943848
      ],
      "translation": [
        -0.083164513111114502,
        2.0123138427734375,
        -4.284792423248291
      ]
    },
    {
      "name": "transform6"
    },
    {
      "children": [
        18
      ],
      "name": "pCube10",
      "rotation": [
        0.65977585315704346,
        0,
        0,
        0.75146245956420898
      ],
      "scale": [
        0.99837857484817505,
        0.50681930780410767,
        0.20049062371253967
      ],
      "translation": [
        -0.084806069731712341,
        1.2254636287689209,
        -4.1276936531066895
      ]
    },
    {
      "name": "transform7",
      "rotation": [
        2.7755575615628914e-17,
        0,
        0,
        1
      ]
    },
    {
      "children": [
        20
      ],
      "name": "pCube11"
    },
    {
      "name": "transform8"
    },
    {
      "children": [
        22
      ],
      "name": "pCube12",
      "rotation": [
        0.20186682045459747,
        0,
        0,
        0.97941297292709351
      ],
      "scale": [
        1,
        1.199739933013916,
        0.035237468779087067
      ],
      "translation": [
        -0.083596751093864441,
        2.1300134658813477,
        -4.9952068328857422
      ]
    },
    {
      "name": "transform9",
      "rotation": [
        -8.8817841970012523e-16,
        -0,
        0,
        1
      ]
    },
    {
      "children": [
        24,
        26,
        28,
        30,
        32,
        34,
        36,
        38,
        40,
        42,
        44,
        46,
        48,
        50,
        52,
        54,
        56,
        58,
        60,
        62,
        64,
        66,
        68,
        70
      ],
      "name": "group14",
      "scale": [
        0.43842953443527222,
        0.43842953443527222,
        0.43842953443527222
      ]
    },
    {
      "children": [
        25
      ],
      "name": "pCylinder1",
      "scale": [
        0.91084516048431396,
        1.9214764833450317,
        0.91084516048431396
      ],
      "translation": [
        0.92849123477935791,
        2.2747197151184082,
        -1.1071170568466187
      ]
    },
    {
      "mesh": 0,
      "name": "pCylinder1_lambert10_0"
    },
    {
      "children": [
        27
      ],
      "name": "pCylinder22",
      "rotation": [
        -0,
        0.7071068286895752,
        0,
        0.7071068286895752
      ],
      "scale": [
        1,
        1,
        34.050937652587891
      ],
      "translation": [
        3.166062593460083,
        1.1490565538406372,
        -4.9898486137390137
      ]
    },
    {
      "mesh": 1,
      "name": "pCylinder22_lambert1_0"
    },
    {
      "children": [
        29
      ],
      "name": "pCylinder21",
      "rotation": [
        -0,
        0.7071068286895752,
        0,
        0.7071068286895752
      ],
      "scale": [
        1,
        1,
        34.050937652587891
      ],
      "translation": [
        3.166062593460083,
        1.0293078422546387,
        -4.9898486137390137
      ]
    },
    {
      "mesh": 2,
      "name": "pCylinder21_lambert1_0"
    },
    {
      "children": [
        31
      ],
      "name": "pCylinder14",
      "scale": [
        1,
        4.8537135124206543,
        1
      ],
      "translation": [
        4.8940162658691406,
        2.6014904975891113,
        -5.0005288124084473
      ]
    },
    {
      "mesh": 3,
      "name": "pCylinder14_lambert10_0"
    },
    {
      "children": [
        33
      ],
      "name": "pCylinder4",
      "scale": [
        1,
        4.8537135124206543,
        1
      ],
      "translation": [
        1.4303923845291138,
        2.6014904975891113,
        -5.0005288124084473
      ]
    },
    {
      "mesh": 4,
      "name": "pCylinder4_lambert10_0"
    },
    {
      "children": [
        35
      ],
      "name": "pCylinder3",
      "scale": [
        0.91084516048431396,
        0.91084516048431396,
        0.91084516048431396
      ],
      "translation": [
        0.85143280029296875,
        3.9230039119720459,
        -1.1061781644821167
      ]
    },
    {
      "mesh": 5,
      "name": "pCylinder3_lambert10_0"
    },
    {
      "children": [
        37
      ],
      "name": "pCylinder2",
      "scale": [
        0.91084516048431396,
        0.91084516048431396,
        0.91084516048431396
      ],
      "translation": [
        0.85143280029296875,
        4.1829438209533691,
        -1.1061781644821167
      ]
    },
    {
      "mesh": 6,
      "name": "pCylinder2_lambert10_0"
    },
    {
      "children": [
        39
      ],
      "name": "pCylinder6",
      "scale": [
        1,
        1,
        18.699033737182617
      ],
      "translation": [
        1.4283658266067505,
        1.0293078422546387,
        -4.0762090682983398
      ]
    },
    {
      "mesh": 7,
      "name": "pCylinder6_lambert13_0"
    },
    {
      "children": [
        41
      ],
      "name": "pCylinder20",
      "scale": [
        0.81227612495422363,
        6.7040896415710449,
        0.61952853202819824
      ],
      "translation": [
        1.4315608739852905,
        2.3492951393127441,
        -4.4941596984863281
      ]
    },
    {
      "mesh": 8,
      "name": "pCylinder20_lambert13_0"
    },
    {
      "children": [
        43
      ],
      "name": "pCylinder13",
      "scale": [
        1,
        1,
        18.699033737182617
      ],
      "translation": [
        4.8921194076538086,
        1.1490565538406372,
        -4.0762090682983398
      ]
    },
    {
      "mesh": 9,
      "name": "pCylinder13_lambert13_0"
    },
    {
      "children": [
        45
      ],
      "name": "pCylinder28",
      "scale": [
        0.81227612495422363,
        6.7040896415710449,
        0.61952853202819824
      ],
      "translation": [
        4.8877987861633301,
        2.3492951393127441,
        -4.4941596984863281
      ]
    },
    {
      "mesh": 10,
      "name": "pCylinder28_lambert13_0"
    },
    {
      "children": [
        47
      ],
      "name": "pCylinder26",
      "scale": [
        0.81227612495422363,
        6.7040896415710449,
        0.61952853202819824
      ],
      "translation": [
        1.4315608739852905,
        2.3492951393127441,
        -3.3453676700592041
      ]
    },
    {
      "mesh": 11,
      "name": "pCylinder26_lambert13_0"
    },
    {
      "children": [
        49
      ],
      "name": "pCylinder9",
      "scale": [
        1,
        1,
        18.699033737182617
      ],
      "translation": [
        1.4283658266067505,
        3.6717586517333984,
        -4.0762090682983398
      ]
    },
    {
      "mesh": 12,
      "name": "pCylinder9_lambert13_0"
    },
    {
      "children": [
        51
      ],
      "name": "pCylinder11",
      "scale": [
        1,
        1,
        18.699033737182617
      ],
      "translation": [
        4.8921194076538086,
        3.6717586517333984,
        -4.0762090682983398
      ]
    },
    {
      "mesh": 13,
      "name": "pCylinder11_lambert13_0"
    },
    {
      "children": [
        53
      ],
      "name": "pCylinder12",
      "scale": [
        1,
        1,
        18.699033737182617
      ],
      "translation": [
        4.8921194076538086,
        3.5520100593566895,
        -4.0762090682983398
      ]
    },
    {
      "mesh": 14,
      "name": "pCylinder12_lambert13_0"
    },
    {
      "children": [
        55
      ],
      "name": "pCube6",
      "scale": [
        4.201542854309082,
        1,
        0.76270675659179688
      ],
      "translation": [
        5.0012683868408203,
        0,
        -1.1846656799316406
      ]
    },
    {
      "mesh": 15,
      "name": "pCube6_aiStandardSurface5_0"
    },
    {
      "children": [
        57
      ],
      "name": "pCube13",
      "scale": [
        3.1409304141998291,
        1,
        1
      ],
      "translation": [
        3.4106578826904297,
        -0.13224858045578003,
        0.0017072296468541026
      ]
    },
    {
      "mesh": 16,
      "name": "pCube13_aiStandardSurface6_0"
    },
    {
      "children": [
        59
      ],
      "name": "pCylinder15",
      "scale": [
        1,
        1,
        18.699033737182617
      ],
      "translation": [
        4.8921194076538086,
        1.0293078422546387,
        -4.0762090682983398
      ]
    },
    {
      "mesh": 17,
      "name": "pCylinder15_lambert13_0"
    },
    {
      "children": [
        61
      ],
      "name": "pCylinder27",
      "scale": [
        0.81227612495422363,
        6.7040896415710449,
        0.61952853202819824
      ],
      "translation": [
        4.8877987861633301,
        2.3492951393127441,
        -3.3453676700592041
      ]
    },
    {
      "mesh": 18,
      "name": "pCylinder27_lambert13_0"
    },
    {
      "children": [
        63
      ],
      "name": "pCylinder8",
      "scale": [
        1,
        1,
        18.699033737182617
      ],
      "translation": [
        1.4283658266067505,
        3.5520100593566895,
        -4.0762090682983398
      ]
    },
    {
      "mesh": 19,
      "name": "pCylinder8_lambert13_0"
    },
    {
      "children": [
        65
      ],
      "name": "pCylinder7",
      "scale": [
        1,
        1,
        18.699033737182617
      ],
      "translation": [
        1.4283658266067505,
        1.1490565538406372,
        -4.0762090682983398
      ]
    },
    {
      "mesh": 20,
      "name": "pCylinder7_lambert13_0"
    },
    {
      "children": [
        67
      ],
      "name": "pCylinder25",
      "scale": [
        1,
        4.8537135124206543,
        0.76270675659179688
      ],
      "translation": [
        4.8948526382446289,
        2.6014904975891113,
        -3.1427168846130371
      ]
    },
    {
      "mesh": 21,
      "name": "pCylinder25_lambert10_0"
    },
    {
      "children": [
        69
      ],
      "name": "pCylinder5",
      "scale": [
        1,
        4.8537135124206543,
        0.76270675659179688
      ],
      "translation": [
        1.4289059638977051,
        2.6014904975891113,
        -3.1427168846130371
      ]
    },
    {
      "mesh": 22,
      "name": "pCylinder5_lambert10_0"
    },
    {
      "children": [
        71,
        73,
        75,
        77,
        79,
        81
      ],
      "name": "group15"
    },
    {
      "children": [
        72
      ],
      "name": "pCube15",
      "scale": [
        1,
        1.0444444417953491,
        0.79337608814239502
      ],
      "translation": [
        4.8775715827941895,
        1.5734001398086548,
        -4.7578268051147461
      ]
    },
    {
      "mesh": 23,
      "name": "pCube15_aiStandardSurface7_0"
    },
    {
      "children": [
        74
      ],
      "name": "pCube7",
      "scale": [
        0.89896392822265625,
        1.0222222805023193,
        0.66703885793685913
      ],
      "translation": [
        4.8901662826538086,
        2.3669192790985107,
        -3.9217996597290039
      ]
    },
    {
      "mesh": 24,
      "name": "pCube7_aiStandardSurface7_0"
    },
    {
      "children": [
        76
      ],
      "name": "pCube8",
      "scale": [
        0.89896392822265625,
        1.0222222805023193,
        0.66703885793685913
      ],
      "translation": [
        1.4299913644790649,
        2.3669192790985107,
        -3.9217996597290039
      ]
    },
    {
      "mesh": 25,
      "name": "pCube8_aiStandardSurface7_0"
    },
    {
      "children": [
        78
      ],
      "name": "pCube14",
      "scale": [
        1,
        1.0444444417953491,
        0.79337608814239502
      ],
      "translation": [
        1.4433294534683228,
        1.5734001398086548,
        -4.7578268051147461
      ]
    },
    {
      "mesh": 26,
      "name": "pCube14_aiStandardSurface7_0"
    },
    {
      "children": [
        80
      ],
      "name": "pCube16",
      "rotation": [
        -0,
        0.7071068286895752,
        0,
        0.7071068286895752
      ],
      "scale": [
        1,
        1.0444444417953491,
        5.2696390151977539
      ],
      "translation": [
        3.1755926609039307,
        1.5734001398086548,
        -5.3549904823303223
      ]
    },
    {
      "mesh": 27,
      "name": "pCube16_aiStandardSurface7_0"
    },
    {
      "children": [
        82
      ],
      "name": "pCube2",
      "rotation": [
        0.069510951638221741,
        0,
        0,
        0.99758118391036987
      ],
      "scale": [
        0.89367043972015381,
        1.1098320484161377,
        2.9108352661132812
      ],
      "translation": [
        1.072424054145813,
        4.2681469917297363,
        -1.1030126810073853
      ]
    },
    {
      "mesh": 28,
      "name": "pCube2_aiStandardSurface7_0"
    }
  ],
  "samplers": [
    {
      "magFilter": 9729,
      "minFilter": 9987,
      "wrapS": 10497,
      "wrapT": 10497
    }
  ],
  "scene": 0,
  "scenes": [
    {
      "name": "OSG_Scene",
      "nodes": [
        0
      ]
    }
  ],
  "textures": [
    {
      "sampler": 0,
      "source": 0
    },
    {
      "sampler": 0,
      "source": 1
    },
    {
      "sampler": 0,
      "source": 2
    },
    {
      "sampler": 0,
      "source": 3
    },
    {
      "sampler": 0,
      "source": 4
    }
  ]
}

